
{
	"name": "Result",
	"item": [
		{
			"name": "Get results",
			"request": {
				"method": "GET",
				"header": [
					{
						"key": "Authorization",
						"value": "Token {{api_key}}",
						"type": "text"
					}
				],
				"url": {
					"raw": "{{base_url}}/results?squid={{squid_hash}}&run={{run_hash}}&task={{task_hash}}",
					"host": [
						"{{base_url}}"
					],
					"path": [
						"results"
					],
					"query": [
						{
							"key": "squid",
							"value": "{{squid_hash}}",
							"description": "Required if `run` is not provided. Returns all results for the squid."
						},
						{
							"key": "run",
							"value": "{{run_hash}}",
							"description": "Required if `squid` is not provided. Returns all results for the run."
						},
						{
							"key": "task",
							"value": "{{task_hash}}",
							"description": "Optional: filter results to a specific task."
						}
					]
				},
				"description": "This endpoint retrieves a paginated list of results produced by a **squid**.\n\n> You must supply **either** the squid hash **or** a specific run hash—**not both**.  \nOptionally, you can also filter those results to a single task within the run. \n  \n\n### Query Parameters\n\n| Name | Type | Required | Default | Description |\n| --- | --- | --- | --- | --- |\n| **squid** | string | one-of\\* | — | Hash of the squid. Returns **all** results produced by that squid (across runs) **if** `run` is omitted. |\n| **run** | string | one-of\\* | — | Hash of the run. Returns results from **that single execution**. Required if `squid` is omitted. |\n| **task** | string | no | — | Optional. Hash of the task. Filters the results (within the chosen squid/run scope) to just that task. |\n| **page** | integer | no | `1` | Page number to fetch (1-indexed). |\n| **page_size** | integer | no | `50` | Number of results per page (max 100). |\n\n\\*Exactly **one** of `squid` or `run` must be provided.\n\n> **Note:** Different squids/crawlers return different sets of result fields (see the Google Maps Reviews example below for one crawler’s schema). \n  \n\n### Pagination Metadata\n\nEvery paginated response includes these top-level fields:\n\n| Field | Type | Description |\n| --- | --- | --- |\n| **total_results** | integer | Total number of result records available for this run. |\n| **limit** | integer | The `page_size` you requested (or the default if you didn’t). |\n| **page** | integer | The page number you requested. |\n| **total_pages** | integer | `ceil(total_results / limit)`—how many pages of data exist. |\n| **result_from** | integer | 1-based index of the first record in this page (e.g. `(page−1)\\\\\\\\\\\\*limit + 1`). |\n| **result_to** | integer | 1-based index of the last record in this page (e.g. `min(page\\\\\\\\\\\\*limit, total_results)`). |\n| **next** | string | Full URL to fetch the next page, or `null` if you’re on the last page. |\n| **previous** | string | Full URL to fetch the previous page, or `null` if you’re on the first page. |\n| **data** | array | Array of result objects. |\n\nUse `next` (or increment `page`) to page through all results until `next` is `null`.\n\n- **data** array holds up to `limit` result objects.\n    \n- The schema of each object (fields beyond the pagination metadata) varies by squid/crawler."
			},
			"response": [
				{
					"name": "Example",
					"originalRequest": {
						"method": "GET",
						"header": [
							{
								"key": "Authorization",
								"value": "Token <api_key>",
								"type": "text"
							}
						],
						"url": {
							"raw": "https://api.lobstr.io/v1/results?squid=<squid_hash>&run=<run_hash>&page=1&page_size=5",
							"protocol": "https",
							"host": [
								"api",
								"lobstr",
								"io"
							],
							"path": [
								"v1",
								"results"
							],
							"query": [
								{
									"key": "squid",
									"value": "<squid_hash>"
								},
								{
									"key": "run",
									"value": "<run_hash>"
								},
								{
									"key": "page",
									"value": "1"
								},
								{
									"key": "page_size",
									"value": "5"
								}
							]
						}
					},
					"status": "OK",
					"code": 200,
					"_postman_previewlanguage": "json",
					"cookie": [],
					"body": "{\"total_results\":6,\"limit\":5,\"page\":1,\"total_pages\":2,\"result_from\":1,\"result_to\":5,\"data\":[{\"id\":\"b4af52b85c45661828d61980c167054b\",\"object\":\"result\",\"squid\":\"b6c56d18cb0046949461ba9ca278e8ad\",\"run\":\"300e9c5c127d421c90f431478d9a2cfb\",\"about\":\"{\\\"service_options\\\": [\\\"Outdoor seating\\\", \\\"Kerbside pickup\\\", \\\"No-contact delivery\\\", \\\"Delivery\\\", \\\"Drive-through\\\", \\\"On-site services\\\", \\\"Takeaway\\\", \\\"Dine-in\\\"], \\\"highlights\\\": [\\\"Great cocktails\\\", \\\"Live music\\\", \\\"Rooftop seating\\\"], \\\"accessibility\\\": [\\\"Wheelchair-accessible entrance\\\", \\\"Wheelchair-accessible seating\\\", \\\"Wheelchair-accessible toilet\\\"], \\\"offerings\\\": [\\\"Alcohol\\\", \\\"Beer\\\", \\\"Cocktails\\\", \\\"Coffee\\\", \\\"Healthy options\\\", \\\"Organic dishes\\\", \\\"Small plates\\\", \\\"Spirits\\\", \\\"Vegetarian options\\\", \\\"Wine\\\"], \\\"dining_options\\\": [\\\"Breakfast\\\", \\\"Brunch\\\", \\\"Lunch\\\", \\\"Dinner\\\", \\\"Catering\\\", \\\"Counter service\\\", \\\"Dessert\\\", \\\"Seating\\\"], \\\"amenities\\\": [\\\"Bar on site\\\", \\\"Toilets\\\", \\\"Wi-Fi\\\", \\\"Wi-Fi\\\"], \\\"atmosphere\\\": [\\\"Casual\\\", \\\"Cozy\\\", \\\"Romantic\\\"], \\\"crowd\\\": [\\\"Groups\\\"], \\\"planning\\\": [\\\"Accepts reservations\\\"], \\\"payments\\\": [\\\"Cheques\\\", \\\"Credit cards\\\", \\\"Debit cards\\\", \\\"Meal coupons\\\", \\\"Mobile Wallets\\\", \\\"Pluxee\\\", \\\"Credit cards\\\"], \\\"children\\\": [\\\"Good for kids\\\", \\\"High chairs\\\", \\\"Kids' menu\\\"], \\\"parking\\\": [\\\"Paid parking lot\\\", \\\"Paid street parking\\\", \\\"Parking\\\"], \\\"pets\\\": [\\\"Dogs allowed\\\"]}\",\"additional_phone\":\"+33491995484\",\"address\":\"9 La Canebière Vieux Port, 13001 Marseille, France\",\"booking_link\":\"https://1860lepalais.fr/reservations/\",\"category\":\"French restaurant, Brunch restaurant, Mediterranean restaurant, Restaurant\",\"cid\":\"1848430158813778492\",\"city\":\"Marseille\",\"country\":\"France\",\"description\":null,\"email\":\"\",\"facebook\":\"https://www.facebook.com/1860-le-palais-104970167957489/\",\"filling_details\":{\"details\":{\"filling_date\":\"02/05/2025, 12:00:23 +0200\"}},\"has_owner\":true,\"health\":false,\"images\":[\"AF1QipMwEyx2SBlJjLlA9ide_tUuxuu25Y_7UtwL2MQ\",\"AF1QipN3BJbZctVudvQZpnukvIiLQ1lNWQT2GVb3xvU\",\"AF1QipOMbQaaq_jHcbZhTb0KpwwingidYfHmeeS5G5c\"],\"images_count\":1561,\"instagram\":\"https://www.instagram.com/1860lepalais\",\"is_permanently_closed\":false,\"is_temporarily_closed\":false,\"last_opening_hours_updated_at\":null,\"lat\":43.2960548,\"lng\":5.3751573,\"main_image_url\":\"https://lh5.googleusercontent.com/p/AF1QipN1W-uhpq1OoRq_6xGiHUvtjUUmncERQ-wtOS_u\",\"menu\":\"https://1860lepalais.fr/menu\",\"name\":\"1860 Le Palais\",\"native_id\":11527102,\"opening_hours\":\"Monday 9 AM–10:30 PM, Tuesday 9 AM–10:30 PM, Wednesday 9 AM–10:30 PM, Thursday 9 AM–10:30 PM, Friday 9 AM–10:30 PM, Saturday 9 AM–10:30 PM, Sunday 9 AM–10:30 PM\",\"phone\":\"+33491995484\",\"plus_code\":\"79WG+C3 Marseille, France\",\"poi\":\"Outdoor seating, Kerbside pickup, No-contact delivery, Delivery, Drive-through, On-site services, Takeaway, Dine-in, Great cocktails, Live music, Rooftop seating, Wheelchair-accessible entrance, Wheelchair-accessible seating, Wheelchair-accessible toilet, Alcohol, Beer, Cocktails, Coffee, Healthy options, Organic dishes, Small plates, Spirits, Vegetarian options, Wine, Breakfast, Brunch, Lunch, Dinner, Catering, Counter service, Dessert, Seating, Bar on site, Toilets, Wi-Fi, Wi-Fi, Casual, Cozy, Romantic, Groups, Accepts reservations, Cheques, Credit cards, Debit cards, Meal coupons, Mobile Wallets, Pluxee, Credit cards, Good for kids, High chairs, Kids' menu, Paid parking lot, Paid street parking, Parking, Dogs allowed\",\"popular_times\":\"\",\"price\":null,\"ratings\":1220,\"score\":4.4,\"scraping_time\":\"2025-02-10T14:31:05.487Z\",\"url\":\"https://www.google.com/maps/place/1860%2BLe%2BPalais/data=!4m6!3m5!1s0x12c9c19b9d6a4c0d:0x19a6f16fa036d23c!8m2!3d43.29605!4d5.37516!19sChIJDUxqnZvByRIRPNI2oG_xphk?authuser=0&hl=en&rclk=1\",\"website\":\"https://www.1860lepalais.fr/\",\"zero_x\":\"0x12c9c19b9d6a4c0d:0x19a6f16fa036d23c\",\"zip_code\":\"13001\"},{\"id\":\"ec2348622e01fa0ed43e7c73b43665a1\",\"object\":\"result\",\"squid\":\"b6c56d18cb0046949461ba9ca278e8ad\",\"run\":\"300e9c5c127d421c90f431478d9a2cfb\",\"about\":\"{\\\"about_description\\\": \\\"Fusion food in a hip spot with a terrace Trendy venue with a spacious terrace offering a seasonal menu of traditional dishes with a twist.\\\", \\\"service_options\\\": [\\\"Outdoor seating\\\", \\\"Takeaway\\\", \\\"Dine-in\\\", \\\"Delivery\\\"], \\\"accessibility\\\": [\\\"Wheelchair-accessible car park\\\", \\\"Wheelchair-accessible seating\\\", \\\"Wheelchair-accessible entrance\\\", \\\"Wheelchair-accessible toilet\\\"], \\\"offerings\\\": [\\\"Alcohol\\\", \\\"Beer\\\", \\\"Cocktails\\\", \\\"Coffee\\\", \\\"Healthy options\\\", \\\"Small plates\\\", \\\"Spirits\\\", \\\"Wine\\\"], \\\"dining_options\\\": [\\\"Breakfast\\\", \\\"Lunch\\\", \\\"Dinner\\\", \\\"Catering\\\", \\\"Dessert\\\", \\\"Seating\\\"], \\\"amenities\\\": [\\\"Toilets\\\"], \\\"atmosphere\\\": [\\\"Casual\\\", \\\"Cozy\\\"], \\\"crowd\\\": [\\\"Groups\\\"], \\\"planning\\\": [\\\"Accepts reservations\\\"], \\\"payments\\\": [\\\"Meal coupons\\\", \\\"Pluxee\\\"], \\\"children\\\": [\\\"Good for kids\\\", \\\"Kids' menu\\\"], \\\"parking\\\": [\\\"Free parking lot\\\"]}\",\"additional_phone\":\"+33491919342\",\"address\":\"8 Rue de la Guirlande, 13002 Marseille, France\",\"booking_link\":\"https://reservation.laddition.com/booking/woodlacantinegourmande\",\"category\":\"French restaurant, Mediterranean restaurant, Restaurant\",\"cid\":\"4472485017472347570\",\"city\":\"Marseille\",\"country\":\"France\",\"description\":\"Trendy venue with a spacious terrace offering a seasonal menu of traditional dishes with a twist.\",\"email\":\"\",\"facebook\":\"\",\"filling_details\":{\"details\":{\"filling_date\":\"02/05/2025, 12:00:18 +0200\"}},\"has_owner\":true,\"health\":false,\"images\":null,\"images_count\":491,\"instagram\":\"\",\"is_permanently_closed\":false,\"is_temporarily_closed\":false,\"last_opening_hours_updated_at\":\"Confirmed by this business 5 weeks ago\",\"lat\":43.296790699999995,\"lng\":5.3704969,\"main_image_url\":\"https://lh5.googleusercontent.com/p/AF1QipN02UEGLd6TfQbfXHaC9Iayhi5ojL08Yz1Vi2QE\",\"menu\":null,\"name\":\"Wood la cantine gourmande\",\"native_id\":11527108,\"opening_hours\":\"Monday 11 AM–5 PM, Tuesday 11 AM–5 PM, Wednesday 11 AM–5 PM, Thursday 11 AM–5 PM, Friday 11 AM–5 PM, Saturday 11 AM–5 PM, Sunday 11 AM–5 PM\",\"phone\":\"+33491919342\",\"plus_code\":\"79WC+P5 Marseille, France\",\"poi\":\"Outdoor seating, Takeaway, Dine-in, Wheelchair-accessible car park, Wheelchair-accessible seating, Alcohol, Beer, Cocktails, Coffee, Healthy options, Small plates, Spirits, Wine, Breakfast, Lunch, Dinner, Catering, Dessert, Seating, Toilets, Casual, Cozy, Groups, Accepts reservations, Meal coupons, Pluxee, Good for kids, Kids' menu, Free parking lot\",\"popular_times\":\"\",\"price\":\"Moderately expensive\",\"ratings\":726,\"score\":4.7,\"scraping_time\":\"2025-02-10T14:31:06.104Z\",\"url\":\"https://www.google.com/maps/place/Wood%2Bla%2Bcantine%2Bgourmande/data=!4m6!3m5!1s0x12c9c0c0e1f362c9:0x3e11756d59b22db2!8m2!3d43.29679!4d5.3705!19sChIJyWLz4cDAyRIRsi2yWW11ET4?authuser=0&hl=en&rclk=1\",\"website\":\"https://woodlacantinegourmande.fr/\",\"zero_x\":\"0x12c9c0c0e1f362c9:0x3e11756d59b22db2\",\"zip_code\":\"13002\"},{\"id\":\"c34a0e98e422b060e8e5d01c4faacbc2\",\"object\":\"result\",\"squid\":\"b6c56d18cb0046949461ba9ca278e8ad\",\"run\":\"300e9c5c127d421c90f431478d9a2cfb\",\"about\":\"{\\\"about_description\\\": \\\"Marseillaise cuisine with pier views Brasserie staples like bouillabaisse & burgers at a terrace restaurant with views of the waterfront.\\\", \\\"service_options\\\": [\\\"Outdoor seating\\\", \\\"Dine-in\\\", \\\"Delivery\\\"], \\\"accessibility\\\": [\\\"Wheelchair-accessible entrance\\\", \\\"Wheelchair-accessible seating\\\"], \\\"offerings\\\": [\\\"Alcohol\\\", \\\"Beer\\\", \\\"Cocktails\\\", \\\"Coffee\\\", \\\"Healthy options\\\", \\\"Late-night food\\\", \\\"Small plates\\\", \\\"Spirits\\\", \\\"Wine\\\"], \\\"dining_options\\\": [\\\"Breakfast\\\", \\\"Lunch\\\", \\\"Dinner\\\", \\\"Catering\\\", \\\"Dessert\\\", \\\"Seating\\\"], \\\"amenities\\\": [\\\"Bar on site\\\", \\\"Toilets\\\"], \\\"atmosphere\\\": [\\\"Casual\\\", \\\"Cozy\\\"], \\\"crowd\\\": [\\\"Groups\\\"], \\\"planning\\\": [\\\"Accepts reservations\\\"], \\\"payments\\\": [\\\"Cheque Dejeuner\\\", \\\"Credit cards\\\", \\\"Debit cards\\\", \\\"Meal coupons\\\", \\\"Mobile Wallets\\\", \\\"Pluxee\\\", \\\"Ticket Restaurant\\\", \\\"Credit cards\\\"], \\\"children\\\": [\\\"Good for kids\\\", \\\"Kids' menu\\\"], \\\"pets\\\": [\\\"Dogs allowed\\\"]}\",\"additional_phone\":null,\"address\":\"184 Quai du Port, 13002 Marseille, France\",\"booking_link\":null,\"category\":\"French restaurant, Bar, Brasserie\",\"cid\":\"9087260039041240159\",\"city\":\"Marseille\",\"country\":\"France\",\"description\":\"Brasserie staples like bouillabaisse & burgers at a terrace restaurant with views of the waterfront.\",\"email\":null,\"facebook\":null,\"filling_details\":{\"details\":{\"filling_date\":\"02/05/2025, 12:00:44 +0200\"}},\"has_owner\":true,\"health\":false,\"images\":null,\"images_count\":863,\"instagram\":null,\"is_permanently_closed\":false,\"is_temporarily_closed\":false,\"last_opening_hours_updated_at\":\"Updated by this business 7 weeks ago\",\"lat\":43.2957992,\"lng\":5.366492699999999,\"main_image_url\":\"https://lh5.googleusercontent.com/p/AF1QipM7cVd7XBiuaHmsdtwhZhMSonNaT-G70ChjUu0\",\"menu\":null,\"name\":\"Paulette - Restaurant Vieux Port\",\"native_id\":11527111,\"opening_hours\":\"Monday 10 AM–10:30 PM, Tuesday 10 AM–10:30 PM, Wednesday 10 AM–10:30 PM, Thursday 10 AM–10:30 PM, Friday 10 AM–10:30 PM, Saturday 10 AM–10:30 PM, Sunday 10 AM–10:30 PM\",\"phone\":\"+33951003712\",\"plus_code\":\"79W8+8H Marseille, France\",\"poi\":\"Outdoor seating, Dine-in, Wheelchair-accessible entrance, Wheelchair-accessible seating, Alcohol, Beer, Cocktails, Coffee, Healthy options, Late-night food, Small plates, Spirits, Wine, Breakfast, Lunch, Dinner, Catering, Dessert, Seating, Bar on site, Toilets, Casual, Cozy, Groups, Accepts reservations, Cheque Dejeuner, Credit cards, Debit cards, Meal coupons, Mobile Wallets, Pluxee, Ticket Restaurant, Credit cards, Good for kids, Kids' menu, Dogs allowed\",\"popular_times\":\"\",\"price\":\"Moderately expensive\",\"ratings\":1466,\"score\":4.3,\"scraping_time\":\"2025-02-10T14:31:06.906Z\",\"url\":\"https://www.google.com/maps/place/Paulette%2B-%2BRestaurant%2BVieux%2BPort/data=!4m6!3m5!1s0x12c9c0c3f3621d5f:0x7e1c6edbf0a7cc5f!8m2!3d43.2958!4d5.36649!19sChIJXx1i88PAyRIRX8yn8NtuHH4?authuser=0&hl=en&rclk=1\",\"website\":null,\"zero_x\":\"0x12c9c0c3f3621d5f:0x7e1c6edbf0a7cc5f\",\"zip_code\":\"13002\"},{\"id\":\"ae4bf7c68b9210f9d3abbf370e8fd8b4\",\"object\":\"result\",\"squid\":\"b6c56d18cb0046949461ba9ca278e8ad\",\"run\":\"300e9c5c127d421c90f431478d9a2cfb\",\"about\":\"{\\\"about_description\\\": \\\"Classic cafe & bar with Old Port views Old-school bistro with views of the Old Port serving casual small plates & late-night drinks.\\\", \\\"from_the_business\\\": [\\\"Identifies as women-owned\\\"], \\\"service_options\\\": [\\\"Outdoor seating\\\", \\\"On-site services\\\", \\\"Takeaway\\\", \\\"Dine-in\\\", \\\"Delivery\\\"], \\\"highlights\\\": [\\\"Great cocktails\\\", \\\"Live music\\\", \\\"Live performances\\\"], \\\"accessibility\\\": [\\\"Wheelchair-accessible car park\\\", \\\"Wheelchair-accessible entrance\\\", \\\"Wheelchair-accessible seating\\\", \\\"Wheelchair-accessible toilet\\\"], \\\"offerings\\\": [\\\"Alcohol\\\", \\\"Beer\\\", \\\"Cocktails\\\", \\\"Food\\\", \\\"Food at bar\\\", \\\"Spirits\\\", \\\"Wine\\\"], \\\"dining_options\\\": [\\\"Seating\\\"], \\\"amenities\\\": [\\\"Toilets\\\", \\\"Wi-Fi\\\", \\\"Wi-Fi\\\"], \\\"atmosphere\\\": [\\\"Casual\\\", \\\"Cozy\\\"], \\\"crowd\\\": [\\\"Groups\\\", \\\"LGBTQ+ friendly\\\", \\\"Transgender safe space\\\"], \\\"planning\\\": [\\\"Accepts reservations\\\"], \\\"payments\\\": [\\\"Credit cards\\\", \\\"Debit cards\\\", \\\"Mobile Wallets\\\", \\\"Credit cards\\\"], \\\"parking\\\": [\\\"Paid street parking\\\"], \\\"pets\\\": [\\\"Dogs allowed\\\"]}\",\"additional_phone\":\"+33491903664, +33491903664, 0491903664, +330491903664\",\"address\":\"34 Quai du Port, 13002 Marseille, France\",\"booking_link\":\"https://widget.thefork.com/fr/9090ed53-5c57-4d38-b272-1451beb76206\",\"category\":\"Bar, Breakfast restaurant, Brewery, Cafe, Cocktail bar, French restaurant, Live music bar, Lounge, Tapas restaurant\",\"cid\":\"12477375663586674097\",\"city\":\"Marseille\",\"country\":\"France\",\"description\":\"Old-school bistro with views of the Old Port serving casual small plates & late-night drinks.\",\"email\":\"info@hotelbellevuemarseille.com, anthony@hotel-marseille.pro\",\"facebook\":\"https://www.facebook.com/barlacaravelle\",\"filling_details\":{\"details\":{\"filling_date\":\"02/05/2025, 12:00:01 +0200\"}},\"has_owner\":true,\"health\":false,\"images\":null,\"images_count\":728,\"instagram\":\"https://www.instagram.com/barlacaravelle\",\"is_permanently_closed\":false,\"is_temporarily_closed\":false,\"last_opening_hours_updated_at\":null,\"lat\":43.2965064,\"lng\":5.372001,\"main_image_url\":\"https://lh5.googleusercontent.com/p/AF1QipN9zvEWf33TNid_o-cwok3MHcGDE6e_5kCtQsc\",\"menu\":\"http://www.lacaravelle-marseille.com/restaurant/\",\"name\":\"La Caravelle\",\"native_id\":11527160,\"opening_hours\":\"Monday 7 AM–2 AM, Tuesday 7 AM–2 AM, Wednesday 7 AM–2 AM, Thursday 7 AM–2 AM, Friday 7 AM–2 AM, Saturday 7 AM–2 AM, Sunday 7 AM–2 AM\",\"phone\":\"+33491903664\",\"plus_code\":\"79WC+JR Marseille, France\",\"poi\":\"Identifies as women-owned, Outdoor seating, On-site services, Takeaway, Dine-in, Great cocktails, Live music, Live performances, Alcohol, Beer, Cocktails, Food, Food at bar, Spirits, Wine, Seating, Toilets, Wi-Fi, Wi-Fi, Casual, Cozy, Groups, LGBTQ+ friendly, Transgender safe space, Accepts reservations, Credit cards, Debit cards, Mobile Wallets, Credit cards, Paid street parking, Dogs allowed\",\"popular_times\":\"\",\"price\":\"Moderately expensive\",\"ratings\":1768,\"score\":4.3,\"scraping_time\":\"2025-02-10T14:31:09.969Z\",\"url\":\"https://www.google.com/maps/place/La%2BCaravelle/data=!4m6!3m5!1s0x12c9c0c0bfa6ca23:0xad288b0edd3005b1!8m2!3d43.29651!4d5.372!19sChIJI8qmv8DAyRIRsQUw3Q6LKK0?authuser=0&hl=en&rclk=1\",\"website\":\"http://www.lacaravelle-marseille.com/\",\"zero_x\":\"0x12c9c0c0bfa6ca23:0xad288b0edd3005b1\",\"zip_code\":\"13002\"},{\"id\":\"6a5ef0dcae3153b8e3519086e2821c57\",\"object\":\"result\",\"squid\":\"b6c56d18cb0046949461ba9ca278e8ad\",\"run\":\"300e9c5c127d421c90f431478d9a2cfb\",\"about\":\"{\\\"from_the_business\\\": [\\\"Identifies as women-owned\\\"], \\\"service_options\\\": [\\\"Outdoor seating\\\", \\\"Takeaway\\\", \\\"Dine-in\\\", \\\"Delivery\\\"], \\\"accessibility\\\": [\\\"Wheelchair-accessible entrance\\\", \\\"Wheelchair-accessible seating\\\", \\\"Assistive hearing loop\\\", \\\"Wheelchair-accessible car park\\\", \\\"Wheelchair-accessible toilet\\\"], \\\"offerings\\\": [\\\"Alcohol\\\", \\\"Beer\\\", \\\"Cocktails\\\", \\\"Coffee\\\", \\\"Halal food\\\", \\\"Healthy options\\\", \\\"Salad bar\\\", \\\"Small plates\\\", \\\"Vegan options\\\", \\\"Vegetarian options\\\"], \\\"dining_options\\\": [\\\"Breakfast\\\", \\\"Brunch\\\", \\\"Lunch\\\", \\\"Catering\\\", \\\"Counter service\\\", \\\"Dessert\\\", \\\"Seating\\\"], \\\"amenities\\\": [\\\"Bar on site\\\", \\\"Gender-neutral toilets\\\", \\\"Toilets\\\", \\\"Wi-Fi\\\", \\\"Wi-Fi\\\"], \\\"atmosphere\\\": [\\\"Casual\\\", \\\"Cozy\\\"], \\\"crowd\\\": [\\\"Family friendly\\\", \\\"Groups\\\", \\\"LGBTQ+ friendly\\\", \\\"Transgender safe space\\\"], \\\"planning\\\": [\\\"Accepts reservations\\\"], \\\"payments\\\": [\\\"Bimpli\\\", \\\"Cheque Dejeuner\\\", \\\"Credit cards\\\", \\\"Meal coupons\\\", \\\"Pluxee\\\", \\\"Ticket Restaurant\\\", \\\"Credit cards\\\"], \\\"children\\\": [\\\"Good for kids\\\", \\\"Kids' menu\\\"], \\\"pets\\\": [\\\"Dogs allowed\\\"]}\",\"additional_phone\":null,\"address\":\"2 Quai du Port, 13002 Marseille, France\",\"booking_link\":null,\"category\":\"Restaurant, Brunch restaurant, Gluten-free restaurant, Mediterranean restaurant\",\"cid\":\"7920513087174350447\",\"city\":\"Marseille\",\"country\":\"France\",\"description\":null,\"email\":null,\"facebook\":null,\"filling_details\":{\"details\":{\"filling_date\":\"02/05/2025, 11:59:54 +0200\"}},\"has_owner\":true,\"health\":false,\"images\":[\"AF1QipOpzHR_Z4G6jIqkesiZErBR-T3xFQ1IipwhyzDD\",\"AF1QipP19iUsoCWEycAbYe76-2S93zHjeT8oxBZmzEdO\"],\"images_count\":154,\"instagram\":null,\"is_permanently_closed\":false,\"is_temporarily_closed\":false,\"last_opening_hours_updated_at\":null,\"lat\":43.296389999999995,\"lng\":5.3735558999999995,\"main_image_url\":\"https://lh5.googleusercontent.com/p/AF1QipP19iUsoCWEycAbYe76-2S93zHjeT8oxBZmzEdO\",\"menu\":null,\"name\":\"Eggplant\",\"native_id\":11527117,\"opening_hours\":\"Monday 9 AM–5 PM, Tuesday 8:30 AM–11 PM, Wednesday 8:30 AM–11 PM, Thursday 8:30 AM–11 PM, Friday 8:30 AM–11 PM, Saturday 8:30 AM–11 PM, Sunday 8:30 AM–11 PM\",\"phone\":\"+33491131108\",\"plus_code\":\"79WF+HC Marseille, France\",\"poi\":\"Identifies as women-owned, Outdoor seating, Takeaway, Dine-in, Wheelchair-accessible entrance, Wheelchair-accessible seating, Alcohol, Beer, Cocktails, Coffee, Halal food, Healthy options, Salad bar, Small plates, Vegan options, Vegetarian options, Breakfast, Brunch, Lunch, Catering, Counter service, Dessert, Seating, Bar on site, Gender-neutral toilets, Toilets, Wi-Fi, Wi-Fi, Casual, Cozy, Family friendly, Groups, LGBTQ+ friendly, Transgender safe space, Bimpli, Cheque Dejeuner, Credit cards, Meal coupons, Pluxee, Ticket Restaurant, Credit cards, Good for kids, Kids' menu, Dogs allowed\",\"popular_times\":\"\",\"price\":null,\"ratings\":459,\"score\":4.4,\"scraping_time\":\"2025-02-10T14:31:10.374Z\",\"url\":\"https://www.google.com/maps/place/Eggplant/data=!4m6!3m5!1s0x12c9c130cdad60dd:0x6deb50b027dc166f!8m2!3d43.29639!4d5.37356!19sChIJ3WCtzTDByRIRbxbcJ7BQ620?authuser=0&hl=en&rclk=1\",\"website\":null,\"zero_x\":\"0x12c9c130cdad60dd:0x6deb50b027dc166f\",\"zip_code\":\"13002\"}],\"next\":\"https://api.lobstr.io/v1/results?squid=b6c56d18cb0046949461ba9ca278e8ad&run=300e9c5c127d421c90f431478d9a2cfb&page=2&page_size=5\"}"
				}
			]
		}
	],
	"description": "The output data collected from completed tasks. Stored in dedicated databases with specific retention periods and export capabilities."
}